%YAML 1.1
%TAG !u! tag:unity3d.com,2011:
--- !u!687078895 &4343727234628468602
SpriteAtlas:
  m_ObjectHideFlags: 0
  m_CorrespondingSourceObject: {fileID: 0}
  m_PrefabInstance: {fileID: 0}
  m_PrefabAsset: {fileID: 0}
  m_Name: Actor
  m_EditorData:
    serializedVersion: 2
    textureSettings:
      serializedVersion: 2
      anisoLevel: 1
      compressionQuality: 50
      maxTextureSize: 2048
      textureCompression: 0
      filterMode: 1
      generateMipMaps: 0
      readable: 0
      crunchedCompression: 0
      sRGB: 1
    platformSettings: []
    packingSettings:
      serializedVersion: 2
      padding: 4
      blockOffset: 1
      allowAlphaSplitting: 0
      enableRotation: 0
      enableTightPacking: 0
    secondaryTextureSettings: {}
    variantMultiplier: 1
    packables:
    - {fileID: 102900000, guid: 6f713a4198bd64d41b893021c50b26dc, type: 3}
    bindAsDefault: 1
    isAtlasV2: 0
    cachedData: {fileID: 0}
  m_MasterAtlas: {fileID: 0}
  m_PackedSprites:
  - {fileID: 21300000, guid: 0b1eb500083786b44a34977c22e73ec8, type: 3}
  - {fileID: 21300000, guid: 5e602230e2d30b740ac25485ea409ed1, type: 3}
  - {fileID: 21300000, guid: 17db74805add9974d931f19c0751222b, type: 3}
  - {fileID: 21300000, guid: 4bb44351da43950469e79aa33e3cbf9c, type: 3}
  - {fileID: 21300000, guid: e46ecd714ff0d5246bed321074b21106, type: 3}
  - {fileID: 21300000, guid: faa38352a8801ca49907eda51f15326f, type: 3}
  - {fileID: 21300000, guid: 81ca35524c622a84f983cc50c170abd9, type: 3}
  - {fileID: 21300000, guid: bdcd7cf2598d28a45aec7f643a49e4a0, type: 3}
  - {fileID: 21300000, guid: ba147693ba9e6e541a35ca58fa506266, type: 3}
  - {fileID: 21300000, guid: eda870d4ff1d60f4b9c3f700da912305, type: 3}
  - {fileID: 21300000, guid: 4f039e95744492442aa282f4509b490b, type: 3}
  - {fileID: 21300000, guid: 56f7ca06002ea52409a49fd12272d2b8, type: 3}
  - {fileID: 21300000, guid: 78ae0136069ddf64cba74dc49e68e53d, type: 3}
  - {fileID: 21300000, guid: d6798b562dae63541acdbf52ea0cb2fd, type: 3}
  - {fileID: 21300000, guid: ffb3a4372c3f6b842bcc7c262973cdc8, type: 3}
  - {fileID: 21300000, guid: 28c1ab670e65002409c913226e17a20d, type: 3}
  - {fileID: 21300000, guid: 9cbbb7d8ffecca44ca04c16a84e21a00, type: 3}
  - {fileID: 21300000, guid: be4d1779df2c3e8409284fbbc039ac93, type: 3}
  - {fileID: 21300000, guid: 7bcac3cbe7fdef042b61356520ada428, type: 3}
  - {fileID: 21300000, guid: 12921a8cc5018a34e85478d8906f0336, type: 3}
  - {fileID: 21300000, guid: 4cf40b9cf3b79bd4bbf45b44345e48ba, type: 3}
  - {fileID: 21300000, guid: 621b29dc0dfcac245935cc5882e240a1, type: 3}
  - {fileID: 21300000, guid: 77d38bdc93d5cda40b3faa257539c661, type: 3}
  - {fileID: 21300000, guid: 4c90addcd4b520d42bde962c5f7a8f5f, type: 3}
  - {fileID: 21300000, guid: 5f7a6e6d7f424cd47bf155a681115c2f, type: 3}
  - {fileID: 21300000, guid: b7b3aaddb1f40874495220c6f3e23b17, type: 3}
  - {fileID: 21300000, guid: 924ff9ffe038f3347b33471f241843b2, type: 3}
  m_PackedSpriteNamesToIndex:
  - N1
  - E9
  - Ally1
  - N15
  - N12
  - E8
  - E17
  - N10
  - E12
  - E18
  - N5
  - N7
  - N13
  - N9
  - E5
  - E10
  - N3
  - N4
  - N6
  - E15_0
  - E3
  - N8
  - N14
  - N2
  - E4
  - N11
  - Ally2
  m_RenderDataMap: {}
  m_Tag: Actor
  m_IsVariant: 0
